1-4-2017,Sat,1
2-4-2017,Sun,0
3-4-2017,Mon,1
4-4-2017,Tue,1
5-4-2017,Wed,1
6-4-2017,Thu,1
7-4-2017,Fri,1
8-4-2017,Sat,1
9-4-2017,Sun,0
10-4-2017,Mon,1
11-4-2017,Tue,1
12-4-2017,Wed,1
13-04-17,Thu,1
14-04-17,Fri,1
15-04-17,Sat,1
16-04-17,Sun,0
17-04-17,Mon,1
18-04-17,Tue,1
19-04-17,Wed,1
20-04-17,Thu,1
21-04-17,Fri,1
22-04-17,Sat,1
23-04-17,Sun,0
24-04-17,Mon,1
25-04-17,Tue,1
26-04-17,Wed,1
27-04-17,Thu,1
28-04-17,Fri,1
29-04-17,Sat,1
30-04-17,Sun,0
1-5-2017,Mon,1
2-5-2017,Tue,1
3-5-2017,Wed,1
4-5-2017,Thu,1
5-5-2017,Fri,1
6-5-2017,Sat,1
7-5-2017,Sun,0
8-5-2017,Mon,1
9-5-2017,Tue,1
10-5-2017,Wed,1
11-5-2017,Thu,1
12-5-2017,Fri,1
13-05-17,Sat,1
14-05-17,Sun,0
15-05-17,Mon,1
16-05-17,Tue,1
17-05-17,Wed,1
18-05-17,Thu,1
19-05-17,Fri,1
20-05-17,Sat,1
21-05-17,Sun,0
22-05-17,Mon,1
23-05-17,Tue,1
24-05-17,Wed,1
25-05-17,Thu,1
26-05-17,Fri,1
27-05-17,Sat,1
28-05-17,Sun,0
29-05-17,Mon,1
30-05-17,Tue,1
31-05-17,Wed,1
1-6-2017,Thu,1
2-6-2017,Fri,1
3-6-2017,Sat,1
4-6-2017,Sun,0
5-6-2017,Mon,1
6-6-2017,Tue,1
7-6-2017,Wed,1
8-6-2017,Thu,1
9-6-2017,Fri,1
10-6-2017,Sat,1
11-6-2017,Sun,0
12-6-2017,Mon,1
13-06-17,Tue,1
14-06-17,Wed,1
15-06-17,Thu,1
16-06-17,Fri,1
17-06-17,Sat,1
18-06-17,Sun,0
19-06-17,Mon,1
20-06-17,Tue,1
21-06-17,Wed,1
22-06-17,Thu,1
23-06-17,Fri,1
24-06-17,Sat,1
25-06-17,Sun,0
26-06-17,Mon,1
27-06-17,Tue,1
28-06-17,Wed,1
29-06-17,Thu,1
30-06-17,Fri,1
1-7-2017,Sat,1
2-7-2017,Sun,0
3-7-2017,Mon,1
4-7-2017,Tue,1
5-7-2017,Wed,1
6-7-2017,Thu,1
7-7-2017,Fri,1
8-7-2017,Sat,1
9-7-2017,Sun,0
10-7-2017,Mon,1
11-7-2017,Tue,1
12-7-2017,Wed,1
13-07-17,Thu,1
14-07-17,Fri,1
15-07-17,Sat,1
16-07-17,Sun,0
17-07-17,Mon,1
18-07-17,Tue,1
19-07-17,Wed,1
20-07-17,Thu,1
21-07-17,Fri,1
22-07-17,Sat,1
23-07-17,Sun,0
24-07-17,Mon,1
25-07-17,Tue,1
26-07-17,Wed,1
27-07-17,Thu,1
28-07-17,Fri,1
29-07-17,Sat,1
30-07-17,Sun,0
31-07-17,Mon,1
1-8-2017,Tue,1
2-8-2017,Wed,1
3-8-2017,Thu,1
4-8-2017,Fri,1
5-8-2017,Sat,1
6-8-2017,Sun,0
7-8-2017,Mon,1
8-8-2017,Tue,1
9-8-2017,Wed,1
10-8-2017,Thu,1
11-8-2017,Fri,1
12-8-2017,Sat,1
13-08-17,Sun,1
14-08-17,Mon,1
15-08-17,Tue,0
16-08-17,Wed,1
17-08-17,Thu,1
18-08-17,Fri,1
19-08-17,Sat,1
20-08-17,Sun,0
21-08-17,Mon,1
22-08-17,Tue,1
23-08-17,Wed,1
24-08-17,Thu,1
25-08-17,Fri,0
26-08-17,Sat,1
27-08-17,Sun,1
28-08-17,Mon,1
29-08-17,Tue,1
30-08-17,Wed,0
31-08-17,Thu,1
1-9-2017,Fri,1
2-9-2017,Sat,1
3-9-2017,Sun,1
4-9-2017,Mon,1
5-9-2017,Tue,0
6-9-2017,Wed,1
7-9-2017,Thu,1
8-9-2017,Fri,1
9-9-2017,Sat,1
10-9-2017,Sun,0
11-9-2017,Mon,1
12-9-2017,Tue,1
13-09-17,Wed,1
14-09-17,Thu,1
15-09-17,Fri,1
16-09-17,Sat,1
17-09-17,Sun,0
18-09-17,Mon,1
19-09-17,Tue,1
20-09-17,Wed,1
21-09-17,Thu,1
22-09-17,Fri,1
23-09-17,Sat,1
24-09-17,Sun,0
25-09-17,Mon,1
26-09-17,Tue,1
27-09-17,Wed,1
28-09-17,Thu,1
29-09-17,Fri,1
30-09-17,Sat,0
1-10-2017,Sun,1
2-10-2017,Mon,1
3-10-2017,Tue,1
4-10-2017,Wed,1
5-10-2017,Thu,1
6-10-2017,Fri,1
7-10-2017,Sat,1
8-10-2017,Sun,0
9-10-2017,Mon,1
10-10-2017,Tue,1
11-10-2017,Wed,1
12-10-2017,Thu,1
13-10-17,Fri,1
14-10-17,Sat,1
15-10-17,Sun,0
16-10-17,Mon,1
17-10-17,Tue,1
18-10-17,Wed,1
19-10-17,Thu,0
20-10-17,Fri,0
21-10-17,Sat,0
22-10-17,Sun,0
23-10-17,Mon,1
24-10-17,Tue,1
25-10-17,Wed,1
26-10-17,Thu,1
27-10-17,Fri,1
28-10-17,Sat,1
29-10-17,Sun,0
30-10-17,Mon,1
31-10-17,Tue,1
1-11-2017,Wed,1
2-11-2017,Thu,1
3-11-2017,Fri,1
4-11-2017,Sat,1
5-11-2017,Sun,0
6-11-2017,Mon,1
7-11-2017,Tue,1
8-11-2017,Wed,1
9-11-2017,Thu,1
10-11-2017,Fri,1
11-11-2017,Sat,1
12-11-2017,Sun,0
13-11-17,Mon,1
14-11-17,Tue,1
15-11-17,Wed,1
16-11-17,Thu,1
17-11-17,Fri,1
18-11-17,Sat,1
19-11-17,Sun,0
20-11-17,Mon,1
21-11-17,Tue,1
22-11-17,Wed,1
23-11-17,Thu,1
24-11-17,Fri,1
25-11-17,Sat,1
26-11-17,Sun,0
27-11-17,Mon,1
28-11-17,Tue,1
29-11-17,Wed,1
30-11-17,Thu,1
1-12-2017,Fri,1
2-12-2017,Sat,1
3-12-2017,Sun,0
4-12-2017,Mon,1
5-12-2017,Tue,1
6-12-2017,Wed,1
7-12-2017,Thu,1
8-12-2017,Fri,1
9-12-2017,Sat,1
10-12-2017,Sun,0
11-12-2017,Mon,1
12-12-2017,Tue,1
13-12-17,Wed,1
14-12-17,Thu,1
15-12-17,Fri,1
16-12-17,Sat,1
17-12-17,Sun,0
18-12-17,Mon,1
19-12-17,Tue,1
20-12-17,Wed,1
21-12-17,Thu,1
22-12-17,Fri,1
23-12-17,Sat,1
24-12-17,Sun,0
25-12-17,Mon,1
26-12-17,Tue,1
27-12-17,Wed,1
28-12-17,Thu,1
29-12-17,Fri,1
30-12-17,Sat,1
31-12-17,Sun,0
1-1-2018,Monday,1
2-1-2018,Tuesday,1
3-1-2018,Wednesday,1
4-1-2018,Thursday,1
5-1-2018,Friday,1
6-1-2018,Saturday,1
7-1-2018,Sunday,0
8-1-2018,Monday,1
9-1-2018,Tuesday,1
10-1-2018,Wednesday,1
11-1-2018,Thursday,1
12-1-2018,Friday,1
13-01-18,Saturday,1
14-01-18,Sunday,0
15-01-18,Monday,1
16-01-18,Tuesday,1
17-01-18,Wednesday,1
18-01-18,Thursday,1
19-01-18,Friday,1
20-01-18,Saturday,1
21-01-18,Sunday,0
22-01-18,Monday,1
23-01-18,Tuesday,1
24-01-18,Wednesday,1
25-01-18,Thursday,1
26-01-18,Friday,1
27-01-18,Saturday,1
28-01-18,Sunday,0
29-01-18,Monday,1
30-01-18,Tuesday,1
31-01-18,Wednesday,1
1-2-2018,Thursday,1
2-2-2018,Friday,1
3-2-2018,Saturday,1
4-2-2018,Sunday,0
5-2-2018,Monday,1
6-2-2018,Tuesday,1
7-2-2018,Wednesday,1
8-2-2018,Thursday,1
9-2-2018,Friday,1
10-2-2018,Saturday,1
11-2-2018,Sunday,0
12-2-2018,Monday,1
13-02-18,Tuesday,1
14-02-18,Wednesday,1
15-02-18,Thursday,1
16-02-18,Friday,1
17-02-18,Saturday,1
18-02-18,Sunday,0
19-02-18,Monday,1
20-02-18,Tuesday,1
21-02-18,Wednesday,1
22-02-18,Thursday,1
23-02-18,Friday,1
24-02-18,Saturday,1
25-02-18,Sunday,0
26-02-18,Monday,1
27-02-18,Tuesday,1
28-02-18,Wednesday,1
1-3-2018,Thursday,1
2-3-2018,Friday,1
3-3-2018,Saturday,1
4-3-2018,Sunday,0
5-3-2018,Monday,1
6-3-2018,Tuesday,1
7-3-2018,Wednesday,1
8-3-2018,Thursday,1
9-3-2018,Friday,1
10-3-2018,Saturday,1
11-3-2018,Sunday,0
12-3-2018,Monday,1
13-03-18,Tuesday,1
14-03-18,Wednesday,1
15-03-18,Thursday,1
16-03-18,Friday,1
17-03-18,Saturday,1
18-03-18,Sunday,0
19-03-18,Monday,1
20-03-18,Tuesday,1
21-03-18,Wednesday,1
22-03-18,Thursday,1
23-03-18,Friday,1
24-03-18,Saturday,1
25-03-18,Sunday,0
26-03-18,Monday,1
27-03-18,Tuesday,1
28-03-18,Wednesday,1
29-03-18,Thursday,1
30-03-18,Friday,1
31-03-18,Saturday,1
1-4-2018,Sunday,0
2-4-2018,Monday,1
3-4-2018,Tuesday,1
4-4-2018,Wednesday,1
5-4-2018,Thursday,1
6-4-2018,Friday,1
7-4-2018,Saturday,1
8-4-2018,Sunday,0
9-4-2018,Monday,1
10-4-2018,Tuesday,1
11-4-2018,Wednesday,1
12-4-2018,Thursday,1
13-04-18,Friday,1
14-04-18,Saturday,1
15-04-18,Sunday,0
16-04-18,Monday,1
17-04-18,Tuesday,1
18-04-18,Wednesday,1
19-04-18,Thursday,1
20-04-18,Friday,1
21-04-18,Saturday,1
22-04-18,Sunday,0
23-04-18,Monday,1
24-04-18,Tuesday,1
25-04-18,Wednesday,1
26-04-18,Thursday,1
27-04-18,Friday,1
28-04-18,Saturday,1
29-04-18,Sunday,0
30-04-18,Monday,1
1-5-2018,Tuesday,1
2-5-2018,Wednesday,1
3-5-2018,Thursday,1
4-5-2018,Friday,1
5-5-2018,Saturday,1
6-5-2018,Sunday,0
7-5-2018,Monday,1
8-5-2018,Tuesday,1
9-5-2018,Wednesday,1
10-5-2018,Thursday,1
11-5-2018,Friday,1
12-5-2018,Saturday,1
13-05-18,Sunday,0
14-05-18,Monday,1
15-05-18,Tuesday,1
16-05-18,Wednesday,1
17-05-18,Thursday,1
18-05-18,Friday,1
19-05-18,Saturday,1
20-05-18,Sunday,0
21-05-18,Monday,1
22-05-18,Tuesday,1
23-05-18,Wednesday,1
24-05-18,Thursday,1
25-05-18,Friday,1
26-05-18,Saturday,1
27-05-18,Sunday,0
28-05-18,Monday,1
29-05-18,Tuesday,1
30-05-18,Wednesday,1
31-05-18,Thursday,1
1-6-2018,Friday,1
2-6-2018,Saturday,1
3-6-2018,Sunday,0
4-6-2018,Monday,1
5-6-2018,Tuesday,1
6-6-2018,Wednesday,1
7-6-2018,Thursday,1
8-6-2018,Friday,1
9-6-2018,Saturday,1
10-6-2018,Sunday,0
11-6-2018,Monday,1
12-6-2018,Tuesday,1
13-06-18,Wednesday,1
14-06-18,Thursday,1
15-06-18,Friday,1
16-06-18,Saturday,1
17-06-18,Sunday,0
18-06-18,Monday,1
19-06-18,Tuesday,1
20-06-18,Wednesday,1
21-06-18,Thursday,1
22-06-18,Friday,1
23-06-18,Saturday,1
24-06-18,Sunday,0
25-06-18,Monday,1
26-06-18,Tuesday,1
27-06-18,Wednesday,1
28-06-18,Thursday,1
29-06-18,Friday,1
30-06-18,Saturday,1
1-7-2018,Sunday,0
2-7-2018,Monday,1
3-7-2018,Tuesday,1
4-7-2018,Wednesday,1
5-7-2018,Thursday,1
6-7-2018,Friday,1
7-7-2018,Saturday,1
8-7-2018,Sunday,0
9-7-2018,Monday,1
10-7-2018,Tuesday,1
11-7-2018,Wednesday,1
12-7-2018,Thursday,1
13-07-18,Friday,1
14-07-18,Saturday,1
15-07-18,Sunday,0
16-07-18,Monday,1
17-07-18,Tuesday,1
18-07-18,Wednesday,1
19-07-18,Thursday,1
20-07-18,Friday,1
21-07-18,Saturday,1
22-07-18,Sunday,0
23-07-18,Monday,1
24-07-18,Tuesday,1
25-07-18,Wednesday,1
26-07-18,Thursday,1
27-07-18,Friday,1
28-07-18,Saturday,1
29-07-18,Sunday,0
30-07-18,Monday,1
31-07-18,Tuesday,1
1-8-2018,Wednesday,1
2-8-2018,Thursday,1
3-8-2018,Friday,1
4-8-2018,Saturday,1
5-8-2018,Sunday,0
6-8-2018,Monday,1
7-8-2018,Tuesday,1
8-8-2018,Wednesday,1
9-8-2018,Thursday,1
10-8-2018,Friday,1
11-8-2018,Saturday,1
12-8-2018,Sunday,0
13-08-18,Monday,1
14-08-18,Tuesday,1
15-08-18,Wednesday,1
16-08-18,Thursday,1
17-08-18,Friday,1
18-08-18,Saturday,1
19-08-18,Sunday,0
20-08-18,Monday,1
21-08-18,Tuesday,1
22-08-18,Wednesday,1
23-08-18,Thursday,1
24-08-18,Friday,1
25-08-18,Saturday,1
26-08-18,Sunday,0
27-08-18,Monday,1
28-08-18,Tuesday,1
29-08-18,Wednesday,1
30-08-18,Thursday,1
31-08-18,Friday,1
1-9-2018,Saturday,1
2-9-2018,Sunday,0
3-9-2018,Monday,1
4-9-2018,Tuesday,1
5-9-2018,Wednesday,1
6-9-2018,Thursday,1
7-9-2018,Friday,1
8-9-2018,Saturday,1
9-9-2018,Sunday,0
10-9-2018,Monday,1
11-9-2018,Tuesday,1
12-9-2018,Wednesday,1
13-09-18,Thursday,1
14-09-18,Friday,1
15-09-18,Saturday,1
16-09-18,Sunday,0
17-09-18,Monday,1
18-09-18,Tuesday,1
19-09-18,Wednesday,1
20-09-18,Thursday,1
21-09-18,Friday,1
22-09-18,Saturday,1
23-09-18,Sunday,0
24-09-18,Monday,1
25-09-18,Tuesday,1
26-09-18,Wednesday,1
27-09-18,Thursday,1
28-09-18,Friday,1
29-09-18,Saturday,1
30-09-18,Sunday,0
1-10-2018,Monday,1
2-10-2018,Tuesday,1
3-10-2018,Wednesday,1
4-10-2018,Thursday,1
5-10-2018,Friday,1
6-10-2018,Saturday,1
7-10-2018,Sunday,0
8-10-2018,Monday,1
9-10-2018,Tuesday,1
10-10-2018,Wednesday,1
11-10-2018,Thursday,1
12-10-2018,Friday,1
13-10-18,Saturday,1
14-10-18,Sunday,0
15-10-18,Monday,1
16-10-18,Tuesday,1
17-10-18,Wednesday,1
18-10-18,Thursday,1
19-10-18,Friday,1
20-10-18,Saturday,1
21-10-18,Sunday,0
22-10-18,Monday,1
23-10-18,Tuesday,1
24-10-18,Wednesday,1
25-10-18,Thursday,1
26-10-18,Friday,1
27-10-18,Saturday,1
28-10-18,Sunday,0
29-10-18,Monday,1
30-10-18,Tuesday,1
31-10-18,Wednesday,1
1-11-2018,Thursday,1
2-11-2018,Friday,1
3-11-2018,Saturday,1
4-11-2018,Sunday,0
5-11-2018,Monday,1
6-11-2018,Tuesday,1
7-11-2018,Wednesday,1
8-11-2018,Thursday,1
9-11-2018,Friday,1
10-11-2018,Saturday,1
11-11-2018,Sunday,0
12-11-2018,Monday,1
13-11-18,Tuesday,1
14-11-18,Wednesday,1
15-11-18,Thursday,1
16-11-18,Friday,1
17-11-18,Saturday,1
18-11-18,Sunday,0
19-11-18,Monday,1
20-11-18,Tuesday,1
21-11-18,Wednesday,1
22-11-18,Thursday,1
23-11-18,Friday,1
24-11-18,Saturday,1
25-11-18,Sunday,0
26-11-18,Monday,1
27-11-18,Tuesday,1
28-11-18,Wednesday,1
29-11-18,Thursday,1
30-11-18,Friday,1
1-12-2018,Saturday,1
2-12-2018,Sunday,0
3-12-2018,Monday,1
4-12-2018,Tuesday,1
5-12-2018,Wednesday,1
6-12-2018,Thursday,1
7-12-2018,Friday,1
8-12-2018,Saturday,1
9-12-2018,Sunday,0
10-12-2018,Monday,1
11-12-2018,Tuesday,1
12-12-2018,Wednesday,1
13-12-18,Thursday,1
14-12-18,Friday,1
15-12-18,Saturday,1
16-12-18,Sunday,0
17-12-18,Monday,1
18-12-18,Tuesday,1
19-12-18,Wednesday,1
20-12-18,Thursday,1
21-12-18,Friday,1
22-12-18,Saturday,1
23-12-18,Sunday,0
24-12-18,Monday,1
25-12-18,Tuesday,1
26-12-18,Wednesday,1
27-12-18,Thursday,1
28-12-18,Friday,1
29-12-18,Saturday,1
30-12-18,Sunday,0
31-12-18,Monday,1
1-1-2019,Tuesday,1
2-1-2019,Wednesday,1
3-1-2019,Thursday,1
4-1-2019,Friday,1
5-1-2019,Saturday,1
6-1-2019,Sunday,0
7-1-2019,Monday,1
8-1-2019,Tuesday,1
9-1-2019,Wednesday,1
10-1-2019,Thursday,1
